STATS506 - Homework 4
…
  #Filter for 2014 and Candidate votes only
  filter(election_year == 2014, voting_type == "Candidate") |>
  #Group by party
  group_by(party) |>
  #Sum votes for each party
  summarise(votes = sum(votes, na.rm = TRUE), .groups = "drop") |>
  #Calculate proportion and percentage
  mutate(proportion = votes / sum(votes),
         percentage = proportion * 100
         ) |>
  #Sort by percent in ascending order
  arrange(percentage)
print(candidate_2014)

# A tibble: 25 × 4
   party                         votes proportion percentage
   <chr>                         <dbl>      <dbl>      <dbl>
 1 Patriotic Revolutionary Front    48  0.0000202    0.00202
 2 NZ Economic Euthenics Party      51  0.0000215    0.00215
 3 Alliance                         59  0.0000248    0.00248
 4 The Expats                       70  0.0000295    0.00295
 5 Human Rights Party               76  0.0000320    0.00320
 6 Climate Party                   116  0.0000488    0.00488
 7 Communist League                135  0.0000568    0.00568
 8 Money Free Party                391  0.000165     0.0165 
 9 Focus New Zealand              1797  0.000756     0.0756 
10 NZ Independent Coalition       1929  0.000812     0.0812 
# ℹ 15 more rows
…
2.0.2 Problem 2b

tournament_wins <- tennis |>
  mutate(year = substr(tourney_date, 1, 4)) |>
  #Only keep finals
  filter(year == "2019", round == "F") |>
  # Count tournaments won by each player
  group_by(winner_name) |>
  summarise(tournaments_won = n(), .groups = 'drop') |>
  arrange(desc(tournaments_won))

tournament_wins

# A tibble: 38 × 2
   winner_name        tournaments_won
   <chr>                        <int>
 1 Dominic Thiem                    5
 2 Novak Djokovic                   5
 3 Daniil Medvedev                  4
 4 Rafael Nadal                     4
 5 Roger Federer                    4
 6 Alex De Minaur                   3
 7 Stefanos Tsitsipas               3
 8 Benoit Paire                     2
 9 Cristian Garin                   2
10 Jo-Wilfried Tsonga               2
# ℹ 28 more rows
…
#Compute wins, total matches, and win-rate
winrate_summary <- winrate_data |>
  group_by(player) |>
  summarise(
    matches_played = n(),
    matches_won = sum(win_flag),
    win_rate = matches_won / matches_played
  ) |>
  filter(matches_played >= 5) |>          
  arrange(desc(win_rate))

winrate_summary

# A tibble: 167 × 4
   player             matches_played matches_won win_rate
   <chr>                       <int>       <dbl>    <dbl>
 1 Rafael Nadal                   69          60    0.870
 2 Novak Djokovic                 65          55    0.846
 3 Roger Federer                  66          55    0.833
 4 Daniil Medvedev                76          56    0.737
 5 Dominic Thiem                  68          50    0.735
 6 Attila Balazs                  10           7    0.7  
 7 Stefanos Tsitsipas             80          55    0.688
 8 Alex De Minaur                 59          40    0.678
 9 Andrey Rublev                  55          37    0.673
10 Matteo Berrettini              67          43    0.642
# ℹ 157 more rows
…
